\beamer@sectionintoc {1}{Graph Autoencoder}{3}{0}{1}
\beamer@subsectionintoc {1}{1}{Erste Ansätze}{5}{0}{1}
\beamer@subsectionintoc {1}{2}{Ein neues Model}{10}{0}{1}
\beamer@sectionintoc {2}{Analyse}{21}{0}{2}
\beamer@subsectionintoc {2}{1}{Loss}{23}{0}{2}
\beamer@subsectionintoc {2}{2}{Auc}{24}{0}{2}
