\relax 
\providecommand\hyper@newdestlabel[2]{}
\providecommand\HyperFirstAtBeginDocument{\AtBeginDocument}
\HyperFirstAtBeginDocument{\ifx\hyper@anchor\@undefined
\global\let\oldcontentsline\contentsline
\gdef\contentsline#1#2#3#4{\oldcontentsline{#1}{#2}{#3}}
\global\let\oldnewlabel\newlabel
\gdef\newlabel#1#2{\newlabelxx{#1}#2}
\gdef\newlabelxx#1#2#3#4#5#6{\oldnewlabel{#1}{{#2}{#3}}}
\AtEndDocument{\ifx\hyper@anchor\@undefined
\let\contentsline\oldcontentsline
\let\newlabel\oldnewlabel
\fi}
\fi}
\global\let\hyper@last\relax 
\gdef\HyperFirstAtBeginDocument#1{#1}
\providecommand\HyField@AuxAddToFields[1]{}
\providecommand\HyField@AuxAddToCoFields[2]{}
\@writefile{nav}{\headcommand {\slideentry {0}{0}{1}{1/1}{}{0}}}
\@writefile{nav}{\headcommand {\beamer@framepages {1}{1}}}
\newlabel{toc<1>}{{2}{2}{}{Doc-Start}{}}
\@writefile{snm}{\beamer@slide {toc<1>}{2}}
\newlabel{toc}{{2}{2}{}{Doc-Start}{}}
\@writefile{snm}{\beamer@slide {toc}{2}}
\@writefile{nav}{\headcommand {\slideentry {0}{0}{2}{2/2}{}{0}}}
\@writefile{nav}{\headcommand {\beamer@framepages {2}{2}}}
\@writefile{toc}{\beamer@sectionintoc {1}{Graph Autoencoder}{3}{0}{1}}
\@writefile{nav}{\headcommand {\beamer@sectionpages {1}{2}}}
\@writefile{nav}{\headcommand {\beamer@subsectionpages {1}{2}}}
\@writefile{nav}{\headcommand {\sectionentry {1}{Graph Autoencoder}{3}{Graph Autoencoder}{0}}}
\newlabel{grapa_1<1>}{{3}{3}{Graph Autoencoder}{Doc-Start}{}}
\@writefile{snm}{\beamer@slide {grapa_1<1>}{3}}
\newlabel{grapa_1}{{3}{3}{Graph Autoencoder}{Doc-Start}{}}
\@writefile{snm}{\beamer@slide {grapa_1}{3}}
\newlabel{fig:imgscp01.pdf}{{3}{3}{Graph Autoencoder}{Doc-Start}{}}
\@writefile{snm}{\beamer@slide {fig:imgscp01.pdf}{3}}
\@writefile{nav}{\headcommand {\slideentry {1}{0}{1}{3/3}{}{0}}}
\@writefile{nav}{\headcommand {\beamer@framepages {3}{3}}}
\newlabel{grapa_2<1>}{{4}{4}{Graph Autoencoder}{Doc-Start}{}}
\@writefile{snm}{\beamer@slide {grapa_2<1>}{4}}
\newlabel{grapa_2}{{4}{4}{Graph Autoencoder}{Doc-Start}{}}
\@writefile{snm}{\beamer@slide {grapa_2}{4}}
\newlabel{fig:imgscp01.pdf}{{4}{4}{Graph Autoencoder}{Doc-Start}{}}
\@writefile{snm}{\beamer@slide {fig:imgscp01.pdf}{4}}
\@writefile{nav}{\headcommand {\slideentry {1}{0}{2}{4/4}{}{0}}}
\@writefile{nav}{\headcommand {\beamer@framepages {4}{4}}}
\@writefile{toc}{\beamer@subsectionintoc {1}{1}{Erste Ansätze}{5}{0}{1}}
\@writefile{nav}{\headcommand {\beamer@subsectionpages {3}{4}}}
\@writefile{nav}{\headcommand {\beamer@subsectionentry {0}{1}{1}{5}{Erste Ansätze}}}
\newlabel{fail_1<1>}{{5}{5}{Erste Ansätze}{Doc-Start}{}}
\@writefile{snm}{\beamer@slide {fail_1<1>}{5}}
\newlabel{fail_1}{{5}{5}{Erste Ansätze}{Doc-Start}{}}
\@writefile{snm}{\beamer@slide {fail_1}{5}}
\newlabel{fig:imgscp01.pdf}{{5}{5}{Erste Ansätze}{Doc-Start}{}}
\@writefile{snm}{\beamer@slide {fig:imgscp01.pdf}{5}}
\@writefile{nav}{\headcommand {\slideentry {1}{1}{1}{5/5}{Erste Ansätze}{0}}}
\@writefile{nav}{\headcommand {\beamer@framepages {5}{5}}}
\newlabel{fail_2<1>}{{5}{6}{Erste Ansätze}{Doc-Start}{}}
\@writefile{snm}{\beamer@slide {fail_2<1>}{6}}
\newlabel{fail_2}{{5}{6}{Erste Ansätze}{Doc-Start}{}}
\@writefile{snm}{\beamer@slide {fail_2}{6}}
\newlabel{fig:imgscp02.pdf}{{5}{6}{Erste Ansätze}{Doc-Start}{}}
\@writefile{snm}{\beamer@slide {fig:imgscp02.pdf}{6}}
\@writefile{nav}{\headcommand {\slideentry {1}{1}{2}{6/6}{Erste Ansätze}{0}}}
\@writefile{nav}{\headcommand {\beamer@framepages {6}{6}}}
\newlabel{fail_3<1>}{{5}{7}{Erste Ansätze}{Doc-Start}{}}
\@writefile{snm}{\beamer@slide {fail_3<1>}{7}}
\newlabel{fail_3}{{5}{7}{Erste Ansätze}{Doc-Start}{}}
\@writefile{snm}{\beamer@slide {fail_3}{7}}
\newlabel{fig:imgscp03.pdf}{{5}{7}{Erste Ansätze}{Doc-Start}{}}
\@writefile{snm}{\beamer@slide {fig:imgscp03.pdf}{7}}
\@writefile{nav}{\headcommand {\slideentry {1}{1}{3}{7/7}{Erste Ansätze}{0}}}
\@writefile{nav}{\headcommand {\beamer@framepages {7}{7}}}
\newlabel{fail_4<1>}{{5}{8}{Erste Ansätze}{Doc-Start}{}}
\@writefile{snm}{\beamer@slide {fail_4<1>}{8}}
\newlabel{fail_4}{{5}{8}{Erste Ansätze}{Doc-Start}{}}
\@writefile{snm}{\beamer@slide {fail_4}{8}}
\newlabel{fig:imgscp04.pdf}{{5}{8}{Erste Ansätze}{Doc-Start}{}}
\@writefile{snm}{\beamer@slide {fig:imgscp04.pdf}{8}}
\@writefile{nav}{\headcommand {\slideentry {1}{1}{4}{8/8}{Erste Ansätze}{0}}}
\@writefile{nav}{\headcommand {\beamer@framepages {8}{8}}}
\newlabel{fail_5<1>}{{6}{9}{Erste Ansätze}{Doc-Start}{}}
\@writefile{snm}{\beamer@slide {fail_5<1>}{9}}
\newlabel{fail_5}{{6}{9}{Erste Ansätze}{Doc-Start}{}}
\@writefile{snm}{\beamer@slide {fail_5}{9}}
\newlabel{fig:imgsrelossa36.pdf}{{6}{9}{Erste Ansätze}{Doc-Start}{}}
\@writefile{snm}{\beamer@slide {fig:imgsrelossa36.pdf}{9}}
\@writefile{nav}{\headcommand {\slideentry {1}{1}{5}{9/9}{Erste Ansätze}{0}}}
\@writefile{nav}{\headcommand {\beamer@framepages {9}{9}}}
\@writefile{toc}{\beamer@subsectionintoc {1}{2}{Ein neues Model}{10}{0}{1}}
\@writefile{nav}{\headcommand {\beamer@subsectionpages {5}{9}}}
\@writefile{nav}{\headcommand {\beamer@subsectionentry {0}{1}{2}{10}{Ein neues Model}}}
\newlabel{works_1<1>}{{7}{10}{Ein neues Model}{Doc-Start}{}}
\@writefile{snm}{\beamer@slide {works_1<1>}{10}}
\newlabel{works_1}{{7}{10}{Ein neues Model}{Doc-Start}{}}
\@writefile{snm}{\beamer@slide {works_1}{10}}
\newlabel{fig:imgs00.pdf}{{7}{10}{Ein neues Model}{Doc-Start}{}}
\@writefile{snm}{\beamer@slide {fig:imgs00.pdf}{10}}
\@writefile{nav}{\headcommand {\slideentry {1}{2}{1}{10/10}{Ein neues Model}{0}}}
\@writefile{nav}{\headcommand {\beamer@framepages {10}{10}}}
\newlabel{works_2<1>}{{7}{11}{Ein neues Model}{Doc-Start}{}}
\@writefile{snm}{\beamer@slide {works_2<1>}{11}}
\newlabel{works_2}{{7}{11}{Ein neues Model}{Doc-Start}{}}
\@writefile{snm}{\beamer@slide {works_2}{11}}
\newlabel{fig:imgs01.pdf}{{7}{11}{Ein neues Model}{Doc-Start}{}}
\@writefile{snm}{\beamer@slide {fig:imgs01.pdf}{11}}
\@writefile{nav}{\headcommand {\slideentry {1}{2}{2}{11/11}{Ein neues Model}{0}}}
\@writefile{nav}{\headcommand {\beamer@framepages {11}{11}}}
\newlabel{works_3<1>}{{7}{12}{Ein neues Model}{Doc-Start}{}}
\@writefile{snm}{\beamer@slide {works_3<1>}{12}}
\newlabel{works_3}{{7}{12}{Ein neues Model}{Doc-Start}{}}
\@writefile{snm}{\beamer@slide {works_3}{12}}
\newlabel{fig:imgs02.pdf}{{7}{12}{Ein neues Model}{Doc-Start}{}}
\@writefile{snm}{\beamer@slide {fig:imgs02.pdf}{12}}
\@writefile{nav}{\headcommand {\slideentry {1}{2}{3}{12/12}{Ein neues Model}{0}}}
\@writefile{nav}{\headcommand {\beamer@framepages {12}{12}}}
\newlabel{works_4<1>}{{7}{13}{Ein neues Model}{Doc-Start}{}}
\@writefile{snm}{\beamer@slide {works_4<1>}{13}}
\newlabel{works_4}{{7}{13}{Ein neues Model}{Doc-Start}{}}
\@writefile{snm}{\beamer@slide {works_4}{13}}
\newlabel{fig:imgs03.pdf}{{7}{13}{Ein neues Model}{Doc-Start}{}}
\@writefile{snm}{\beamer@slide {fig:imgs03.pdf}{13}}
\@writefile{nav}{\headcommand {\slideentry {1}{2}{4}{13/13}{Ein neues Model}{0}}}
\@writefile{nav}{\headcommand {\beamer@framepages {13}{13}}}
\newlabel{works_5<1>}{{7}{14}{Ein neues Model}{Doc-Start}{}}
\@writefile{snm}{\beamer@slide {works_5<1>}{14}}
\newlabel{works_5}{{7}{14}{Ein neues Model}{Doc-Start}{}}
\@writefile{snm}{\beamer@slide {works_5}{14}}
\newlabel{fig:imgs04.pdf}{{7}{14}{Ein neues Model}{Doc-Start}{}}
\@writefile{snm}{\beamer@slide {fig:imgs04.pdf}{14}}
\@writefile{nav}{\headcommand {\slideentry {1}{2}{5}{14/14}{Ein neues Model}{0}}}
\@writefile{nav}{\headcommand {\beamer@framepages {14}{14}}}
\newlabel{works_6<1>}{{7}{15}{Ein neues Model}{Doc-Start}{}}
\@writefile{snm}{\beamer@slide {works_6<1>}{15}}
\newlabel{works_6}{{7}{15}{Ein neues Model}{Doc-Start}{}}
\@writefile{snm}{\beamer@slide {works_6}{15}}
\newlabel{fig:imgs05.pdf}{{7}{15}{Ein neues Model}{Doc-Start}{}}
\@writefile{snm}{\beamer@slide {fig:imgs05.pdf}{15}}
\@writefile{nav}{\headcommand {\slideentry {1}{2}{6}{15/15}{Ein neues Model}{0}}}
\@writefile{nav}{\headcommand {\beamer@framepages {15}{15}}}
\newlabel{works_7<1>}{{7}{16}{Ein neues Model}{Doc-Start}{}}
\@writefile{snm}{\beamer@slide {works_7<1>}{16}}
\newlabel{works_7}{{7}{16}{Ein neues Model}{Doc-Start}{}}
\@writefile{snm}{\beamer@slide {works_7}{16}}
\newlabel{fig:imgs06.pdf}{{7}{16}{Ein neues Model}{Doc-Start}{}}
\@writefile{snm}{\beamer@slide {fig:imgs06.pdf}{16}}
\@writefile{nav}{\headcommand {\slideentry {1}{2}{7}{16/16}{Ein neues Model}{0}}}
\@writefile{nav}{\headcommand {\beamer@framepages {16}{16}}}
\newlabel{works_8<1>}{{7}{17}{Ein neues Model}{Doc-Start}{}}
\@writefile{snm}{\beamer@slide {works_8<1>}{17}}
\newlabel{works_8}{{7}{17}{Ein neues Model}{Doc-Start}{}}
\@writefile{snm}{\beamer@slide {works_8}{17}}
\newlabel{fig:imgs07.pdf}{{7}{17}{Ein neues Model}{Doc-Start}{}}
\@writefile{snm}{\beamer@slide {fig:imgs07.pdf}{17}}
\@writefile{nav}{\headcommand {\slideentry {1}{2}{8}{17/17}{Ein neues Model}{0}}}
\@writefile{nav}{\headcommand {\beamer@framepages {17}{17}}}
\newlabel{works_9<1>}{{7}{18}{Ein neues Model}{Doc-Start}{}}
\@writefile{snm}{\beamer@slide {works_9<1>}{18}}
\newlabel{works_9}{{7}{18}{Ein neues Model}{Doc-Start}{}}
\@writefile{snm}{\beamer@slide {works_9}{18}}
\newlabel{fig:imgs08.pdf}{{7}{18}{Ein neues Model}{Doc-Start}{}}
\@writefile{snm}{\beamer@slide {fig:imgs08.pdf}{18}}
\@writefile{nav}{\headcommand {\slideentry {1}{2}{9}{18/18}{Ein neues Model}{0}}}
\@writefile{nav}{\headcommand {\beamer@framepages {18}{18}}}
\newlabel{works_10<1>}{{7}{19}{Ein neues Model}{Doc-Start}{}}
\@writefile{snm}{\beamer@slide {works_10<1>}{19}}
\newlabel{works_10}{{7}{19}{Ein neues Model}{Doc-Start}{}}
\@writefile{snm}{\beamer@slide {works_10}{19}}
\newlabel{fig:imgs06.pdf}{{7}{19}{Ein neues Model}{Doc-Start}{}}
\@writefile{snm}{\beamer@slide {fig:imgs06.pdf}{19}}
\@writefile{nav}{\headcommand {\slideentry {1}{2}{10}{19/19}{Ein neues Model}{0}}}
\@writefile{nav}{\headcommand {\beamer@framepages {19}{19}}}
\newlabel{works_11<1>}{{7}{20}{Ein neues Model}{Doc-Start}{}}
\@writefile{snm}{\beamer@slide {works_11<1>}{20}}
\newlabel{works_11}{{7}{20}{Ein neues Model}{Doc-Start}{}}
\@writefile{snm}{\beamer@slide {works_11}{20}}
\newlabel{fig:imgs01.pdf}{{7}{20}{Ein neues Model}{Doc-Start}{}}
\@writefile{snm}{\beamer@slide {fig:imgs01.pdf}{20}}
\@writefile{nav}{\headcommand {\slideentry {1}{2}{11}{20/20}{Ein neues Model}{0}}}
\@writefile{nav}{\headcommand {\beamer@framepages {20}{20}}}
\@writefile{toc}{\beamer@sectionintoc {2}{Analyse}{21}{0}{2}}
\@writefile{nav}{\headcommand {\beamer@sectionpages {3}{20}}}
\@writefile{nav}{\headcommand {\beamer@subsectionpages {10}{20}}}
\@writefile{nav}{\headcommand {\sectionentry {2}{Analyse}{21}{Analyse}{0}}}
\newlabel{basics_1<1>}{{8}{21}{Analyse}{Doc-Start}{}}
\@writefile{snm}{\beamer@slide {basics_1<1>}{21}}
\newlabel{basics_1}{{8}{21}{Analyse}{Doc-Start}{}}
\@writefile{snm}{\beamer@slide {basics_1}{21}}
\@writefile{nav}{\headcommand {\slideentry {2}{0}{1}{21/21}{}{0}}}
\@writefile{nav}{\headcommand {\beamer@framepages {21}{21}}}
\newlabel{basics_2<1>}{{9}{22}{Analyse}{Doc-Start}{}}
\@writefile{snm}{\beamer@slide {basics_2<1>}{22}}
\newlabel{basics_2}{{9}{22}{Analyse}{Doc-Start}{}}
\@writefile{snm}{\beamer@slide {basics_2}{22}}
\newlabel{fig:imgshistory.pdf}{{9}{22}{Analyse}{Doc-Start}{}}
\@writefile{snm}{\beamer@slide {fig:imgshistory.pdf}{22}}
\@writefile{nav}{\headcommand {\slideentry {2}{0}{2}{22/22}{}{0}}}
\@writefile{nav}{\headcommand {\beamer@framepages {22}{22}}}
\@writefile{toc}{\beamer@subsectionintoc {2}{1}{Loss}{23}{0}{2}}
\@writefile{nav}{\headcommand {\beamer@subsectionpages {21}{22}}}
\@writefile{nav}{\headcommand {\beamer@subsectionentry {0}{2}{1}{23}{Loss}}}
\newlabel{loss_1<1>}{{10}{23}{Loss}{Doc-Start}{}}
\@writefile{snm}{\beamer@slide {loss_1<1>}{23}}
\newlabel{loss_1}{{10}{23}{Loss}{Doc-Start}{}}
\@writefile{snm}{\beamer@slide {loss_1}{23}}
\newlabel{fig:imgsreloss7475.pdf}{{10}{23}{Loss}{Doc-Start}{}}
\@writefile{snm}{\beamer@slide {fig:imgsreloss7475.pdf}{23}}
\@writefile{nav}{\headcommand {\slideentry {2}{1}{1}{23/23}{Loss}{0}}}
\@writefile{nav}{\headcommand {\beamer@framepages {23}{23}}}
\@writefile{toc}{\beamer@subsectionintoc {2}{2}{Auc}{24}{0}{2}}
\@writefile{nav}{\headcommand {\beamer@subsectionpages {23}{23}}}
\@writefile{nav}{\headcommand {\beamer@subsectionentry {0}{2}{2}{24}{Auc}}}
\newlabel{auc_1<1>}{{11}{24}{Auc}{Doc-Start}{}}
\@writefile{snm}{\beamer@slide {auc_1<1>}{24}}
\newlabel{auc_1}{{11}{24}{Auc}{Doc-Start}{}}
\@writefile{snm}{\beamer@slide {auc_1}{24}}
\newlabel{fig:imgsrecc0.pdf}{{11}{24}{Auc}{Doc-Start}{}}
\@writefile{snm}{\beamer@slide {fig:imgsrecc0.pdf}{24}}
\@writefile{nav}{\headcommand {\slideentry {2}{2}{1}{24/24}{Auc}{0}}}
\@writefile{nav}{\headcommand {\beamer@framepages {24}{24}}}
\newlabel{auc_2<1>}{{11}{25}{Auc}{Doc-Start}{}}
\@writefile{snm}{\beamer@slide {auc_2<1>}{25}}
\newlabel{auc_2}{{11}{25}{Auc}{Doc-Start}{}}
\@writefile{snm}{\beamer@slide {auc_2}{25}}
\newlabel{fig:imgsrecc1.pdf}{{11}{25}{Auc}{Doc-Start}{}}
\@writefile{snm}{\beamer@slide {fig:imgsrecc1.pdf}{25}}
\@writefile{nav}{\headcommand {\slideentry {2}{2}{2}{25/25}{Auc}{0}}}
\@writefile{nav}{\headcommand {\beamer@framepages {25}{25}}}
\newlabel{auc_3<1>}{{11}{26}{Auc}{Doc-Start}{}}
\@writefile{snm}{\beamer@slide {auc_3<1>}{26}}
\newlabel{auc_3}{{11}{26}{Auc}{Doc-Start}{}}
\@writefile{snm}{\beamer@slide {auc_3}{26}}
\newlabel{fig:imgsrecc2.pdf}{{11}{26}{Auc}{Doc-Start}{}}
\@writefile{snm}{\beamer@slide {fig:imgsrecc2.pdf}{26}}
\@writefile{nav}{\headcommand {\slideentry {2}{2}{3}{26/26}{Auc}{0}}}
\@writefile{nav}{\headcommand {\beamer@framepages {26}{26}}}
\newlabel{auc_4<1>}{{11}{27}{Auc}{Doc-Start}{}}
\@writefile{snm}{\beamer@slide {auc_4<1>}{27}}
\newlabel{auc_4}{{11}{27}{Auc}{Doc-Start}{}}
\@writefile{snm}{\beamer@slide {auc_4}{27}}
\newlabel{fig:imgsrecc3.pdf}{{11}{27}{Auc}{Doc-Start}{}}
\@writefile{snm}{\beamer@slide {fig:imgsrecc3.pdf}{27}}
\@writefile{nav}{\headcommand {\slideentry {2}{2}{4}{27/27}{Auc}{0}}}
\@writefile{nav}{\headcommand {\beamer@framepages {27}{27}}}
\@writefile{nav}{\headcommand {\beamer@partpages {1}{27}}}
\@writefile{nav}{\headcommand {\beamer@subsectionpages {24}{27}}}
\@writefile{nav}{\headcommand {\beamer@sectionpages {21}{27}}}
\@writefile{nav}{\headcommand {\beamer@documentpages {27}}}
\@writefile{nav}{\headcommand {\gdef \inserttotalframenumber {11}}}
