\beamer@sectionintoc {1}{Graph Autoencoder}{3}{0}{1}
\beamer@subsectionintoc {1}{1}{Literatur}{5}{0}{1}
\beamer@subsectionintoc {1}{2}{Erste Ansätze}{6}{0}{1}
\beamer@subsectionintoc {1}{3}{Ein neues Model}{11}{0}{1}
\beamer@sectionintoc {2}{Analyse}{22}{0}{2}
\beamer@subsectionintoc {2}{1}{Loss}{24}{0}{2}
\beamer@subsectionintoc {2}{2}{Auc}{25}{0}{2}
