\relax 
\providecommand\hyper@newdestlabel[2]{}
\providecommand\HyperFirstAtBeginDocument{\AtBeginDocument}
\HyperFirstAtBeginDocument{\ifx\hyper@anchor\@undefined
\global\let\oldcontentsline\contentsline
\gdef\contentsline#1#2#3#4{\oldcontentsline{#1}{#2}{#3}}
\global\let\oldnewlabel\newlabel
\gdef\newlabel#1#2{\newlabelxx{#1}#2}
\gdef\newlabelxx#1#2#3#4#5#6{\oldnewlabel{#1}{{#2}{#3}}}
\AtEndDocument{\ifx\hyper@anchor\@undefined
\let\contentsline\oldcontentsline
\let\newlabel\oldnewlabel
\fi}
\fi}
\global\let\hyper@last\relax 
\gdef\HyperFirstAtBeginDocument#1{#1}
\providecommand\HyField@AuxAddToFields[1]{}
\providecommand\HyField@AuxAddToCoFields[2]{}
\@writefile{nav}{\headcommand {\slideentry {0}{0}{1}{1/1}{}{0}}}
\@writefile{nav}{\headcommand {\beamer@framepages {1}{1}}}
\newlabel{toc<1>}{{2}{2}{}{Doc-Start}{}}
\@writefile{snm}{\beamer@slide {toc<1>}{2}}
\newlabel{toc}{{2}{2}{}{Doc-Start}{}}
\@writefile{snm}{\beamer@slide {toc}{2}}
\@writefile{nav}{\headcommand {\slideentry {0}{0}{2}{2/2}{}{0}}}
\@writefile{nav}{\headcommand {\beamer@framepages {2}{2}}}
\@writefile{toc}{\beamer@sectionintoc {1}{Graph Autoencoder}{3}{0}{1}}
\@writefile{nav}{\headcommand {\beamer@sectionpages {1}{2}}}
\@writefile{nav}{\headcommand {\beamer@subsectionpages {1}{2}}}
\@writefile{nav}{\headcommand {\sectionentry {1}{Graph Autoencoder}{3}{Graph Autoencoder}{0}}}
\newlabel{grapa_1<1>}{{3}{3}{Graph Autoencoder}{Doc-Start}{}}
\@writefile{snm}{\beamer@slide {grapa_1<1>}{3}}
\newlabel{grapa_1}{{3}{3}{Graph Autoencoder}{Doc-Start}{}}
\@writefile{snm}{\beamer@slide {grapa_1}{3}}
\newlabel{fig:imgscp01.pdf}{{3}{3}{Graph Autoencoder}{Doc-Start}{}}
\@writefile{snm}{\beamer@slide {fig:imgscp01.pdf}{3}}
\@writefile{nav}{\headcommand {\slideentry {1}{0}{1}{3/3}{}{0}}}
\@writefile{nav}{\headcommand {\beamer@framepages {3}{3}}}
\newlabel{grapa_2<1>}{{4}{4}{Graph Autoencoder}{Doc-Start}{}}
\@writefile{snm}{\beamer@slide {grapa_2<1>}{4}}
\newlabel{grapa_2}{{4}{4}{Graph Autoencoder}{Doc-Start}{}}
\@writefile{snm}{\beamer@slide {grapa_2}{4}}
\newlabel{fig:imgscp01.pdf}{{4}{4}{Graph Autoencoder}{Doc-Start}{}}
\@writefile{snm}{\beamer@slide {fig:imgscp01.pdf}{4}}
\@writefile{nav}{\headcommand {\slideentry {1}{0}{2}{4/4}{}{0}}}
\@writefile{nav}{\headcommand {\beamer@framepages {4}{4}}}
\@writefile{toc}{\beamer@subsectionintoc {1}{1}{Literatur}{5}{0}{1}}
\@writefile{nav}{\headcommand {\beamer@subsectionpages {3}{4}}}
\@writefile{nav}{\headcommand {\beamer@subsectionentry {0}{1}{1}{5}{Literatur}}}
\newlabel{papers_1<1>}{{5}{5}{Literatur}{Doc-Start}{}}
\@writefile{snm}{\beamer@slide {papers_1<1>}{5}}
\newlabel{papers_1}{{5}{5}{Literatur}{Doc-Start}{}}
\@writefile{snm}{\beamer@slide {papers_1}{5}}
\@writefile{nav}{\headcommand {\slideentry {1}{1}{1}{5/5}{Literatur}{0}}}
\@writefile{nav}{\headcommand {\beamer@framepages {5}{5}}}
\@writefile{toc}{\beamer@subsectionintoc {1}{2}{Erste Ansätze}{6}{0}{1}}
\@writefile{nav}{\headcommand {\beamer@subsectionpages {5}{5}}}
\@writefile{nav}{\headcommand {\beamer@subsectionentry {0}{1}{2}{6}{Erste Ansätze}}}
\newlabel{fail_1<1>}{{6}{6}{Erste Ansätze}{Doc-Start}{}}
\@writefile{snm}{\beamer@slide {fail_1<1>}{6}}
\newlabel{fail_1}{{6}{6}{Erste Ansätze}{Doc-Start}{}}
\@writefile{snm}{\beamer@slide {fail_1}{6}}
\newlabel{fig:imgscp01.pdf}{{6}{6}{Erste Ansätze}{Doc-Start}{}}
\@writefile{snm}{\beamer@slide {fig:imgscp01.pdf}{6}}
\@writefile{nav}{\headcommand {\slideentry {1}{2}{1}{6/6}{Erste Ansätze}{0}}}
\@writefile{nav}{\headcommand {\beamer@framepages {6}{6}}}
\newlabel{fail_2<1>}{{6}{7}{Erste Ansätze}{Doc-Start}{}}
\@writefile{snm}{\beamer@slide {fail_2<1>}{7}}
\newlabel{fail_2}{{6}{7}{Erste Ansätze}{Doc-Start}{}}
\@writefile{snm}{\beamer@slide {fail_2}{7}}
\newlabel{fig:imgscp02.pdf}{{6}{7}{Erste Ansätze}{Doc-Start}{}}
\@writefile{snm}{\beamer@slide {fig:imgscp02.pdf}{7}}
\@writefile{nav}{\headcommand {\slideentry {1}{2}{2}{7/7}{Erste Ansätze}{0}}}
\@writefile{nav}{\headcommand {\beamer@framepages {7}{7}}}
\newlabel{fail_3<1>}{{6}{8}{Erste Ansätze}{Doc-Start}{}}
\@writefile{snm}{\beamer@slide {fail_3<1>}{8}}
\newlabel{fail_3}{{6}{8}{Erste Ansätze}{Doc-Start}{}}
\@writefile{snm}{\beamer@slide {fail_3}{8}}
\newlabel{fig:imgscp03.pdf}{{6}{8}{Erste Ansätze}{Doc-Start}{}}
\@writefile{snm}{\beamer@slide {fig:imgscp03.pdf}{8}}
\@writefile{nav}{\headcommand {\slideentry {1}{2}{3}{8/8}{Erste Ansätze}{0}}}
\@writefile{nav}{\headcommand {\beamer@framepages {8}{8}}}
\newlabel{fail_4<1>}{{6}{9}{Erste Ansätze}{Doc-Start}{}}
\@writefile{snm}{\beamer@slide {fail_4<1>}{9}}
\newlabel{fail_4}{{6}{9}{Erste Ansätze}{Doc-Start}{}}
\@writefile{snm}{\beamer@slide {fail_4}{9}}
\newlabel{fig:imgscp04.pdf}{{6}{9}{Erste Ansätze}{Doc-Start}{}}
\@writefile{snm}{\beamer@slide {fig:imgscp04.pdf}{9}}
\@writefile{nav}{\headcommand {\slideentry {1}{2}{4}{9/9}{Erste Ansätze}{0}}}
\@writefile{nav}{\headcommand {\beamer@framepages {9}{9}}}
\newlabel{fail_5<1>}{{7}{10}{Erste Ansätze}{Doc-Start}{}}
\@writefile{snm}{\beamer@slide {fail_5<1>}{10}}
\newlabel{fail_5}{{7}{10}{Erste Ansätze}{Doc-Start}{}}
\@writefile{snm}{\beamer@slide {fail_5}{10}}
\newlabel{fig:imgsrelossa36.pdf}{{7}{10}{Erste Ansätze}{Doc-Start}{}}
\@writefile{snm}{\beamer@slide {fig:imgsrelossa36.pdf}{10}}
\@writefile{nav}{\headcommand {\slideentry {1}{2}{5}{10/10}{Erste Ansätze}{0}}}
\@writefile{nav}{\headcommand {\beamer@framepages {10}{10}}}
\@writefile{toc}{\beamer@subsectionintoc {1}{3}{Ein neues Model}{11}{0}{1}}
\@writefile{nav}{\headcommand {\beamer@subsectionpages {6}{10}}}
\@writefile{nav}{\headcommand {\beamer@subsectionentry {0}{1}{3}{11}{Ein neues Model}}}
\newlabel{works_1<1>}{{8}{11}{Ein neues Model}{Doc-Start}{}}
\@writefile{snm}{\beamer@slide {works_1<1>}{11}}
\newlabel{works_1}{{8}{11}{Ein neues Model}{Doc-Start}{}}
\@writefile{snm}{\beamer@slide {works_1}{11}}
\newlabel{fig:imgs00.pdf}{{8}{11}{Ein neues Model}{Doc-Start}{}}
\@writefile{snm}{\beamer@slide {fig:imgs00.pdf}{11}}
\@writefile{nav}{\headcommand {\slideentry {1}{3}{1}{11/11}{Ein neues Model}{0}}}
\@writefile{nav}{\headcommand {\beamer@framepages {11}{11}}}
\newlabel{works_2<1>}{{8}{12}{Ein neues Model}{Doc-Start}{}}
\@writefile{snm}{\beamer@slide {works_2<1>}{12}}
\newlabel{works_2}{{8}{12}{Ein neues Model}{Doc-Start}{}}
\@writefile{snm}{\beamer@slide {works_2}{12}}
\newlabel{fig:imgs01.pdf}{{8}{12}{Ein neues Model}{Doc-Start}{}}
\@writefile{snm}{\beamer@slide {fig:imgs01.pdf}{12}}
\@writefile{nav}{\headcommand {\slideentry {1}{3}{2}{12/12}{Ein neues Model}{0}}}
\@writefile{nav}{\headcommand {\beamer@framepages {12}{12}}}
\newlabel{works_3<1>}{{8}{13}{Ein neues Model}{Doc-Start}{}}
\@writefile{snm}{\beamer@slide {works_3<1>}{13}}
\newlabel{works_3}{{8}{13}{Ein neues Model}{Doc-Start}{}}
\@writefile{snm}{\beamer@slide {works_3}{13}}
\newlabel{fig:imgs02.pdf}{{8}{13}{Ein neues Model}{Doc-Start}{}}
\@writefile{snm}{\beamer@slide {fig:imgs02.pdf}{13}}
\@writefile{nav}{\headcommand {\slideentry {1}{3}{3}{13/13}{Ein neues Model}{0}}}
\@writefile{nav}{\headcommand {\beamer@framepages {13}{13}}}
\newlabel{works_4<1>}{{8}{14}{Ein neues Model}{Doc-Start}{}}
\@writefile{snm}{\beamer@slide {works_4<1>}{14}}
\newlabel{works_4}{{8}{14}{Ein neues Model}{Doc-Start}{}}
\@writefile{snm}{\beamer@slide {works_4}{14}}
\newlabel{fig:imgs03.pdf}{{8}{14}{Ein neues Model}{Doc-Start}{}}
\@writefile{snm}{\beamer@slide {fig:imgs03.pdf}{14}}
\@writefile{nav}{\headcommand {\slideentry {1}{3}{4}{14/14}{Ein neues Model}{0}}}
\@writefile{nav}{\headcommand {\beamer@framepages {14}{14}}}
\newlabel{works_5<1>}{{8}{15}{Ein neues Model}{Doc-Start}{}}
\@writefile{snm}{\beamer@slide {works_5<1>}{15}}
\newlabel{works_5}{{8}{15}{Ein neues Model}{Doc-Start}{}}
\@writefile{snm}{\beamer@slide {works_5}{15}}
\newlabel{fig:imgs04.pdf}{{8}{15}{Ein neues Model}{Doc-Start}{}}
\@writefile{snm}{\beamer@slide {fig:imgs04.pdf}{15}}
\@writefile{nav}{\headcommand {\slideentry {1}{3}{5}{15/15}{Ein neues Model}{0}}}
\@writefile{nav}{\headcommand {\beamer@framepages {15}{15}}}
\newlabel{works_6<1>}{{8}{16}{Ein neues Model}{Doc-Start}{}}
\@writefile{snm}{\beamer@slide {works_6<1>}{16}}
\newlabel{works_6}{{8}{16}{Ein neues Model}{Doc-Start}{}}
\@writefile{snm}{\beamer@slide {works_6}{16}}
\newlabel{fig:imgs05.pdf}{{8}{16}{Ein neues Model}{Doc-Start}{}}
\@writefile{snm}{\beamer@slide {fig:imgs05.pdf}{16}}
\@writefile{nav}{\headcommand {\slideentry {1}{3}{6}{16/16}{Ein neues Model}{0}}}
\@writefile{nav}{\headcommand {\beamer@framepages {16}{16}}}
\newlabel{works_7<1>}{{8}{17}{Ein neues Model}{Doc-Start}{}}
\@writefile{snm}{\beamer@slide {works_7<1>}{17}}
\newlabel{works_7}{{8}{17}{Ein neues Model}{Doc-Start}{}}
\@writefile{snm}{\beamer@slide {works_7}{17}}
\newlabel{fig:imgs06.pdf}{{8}{17}{Ein neues Model}{Doc-Start}{}}
\@writefile{snm}{\beamer@slide {fig:imgs06.pdf}{17}}
\@writefile{nav}{\headcommand {\slideentry {1}{3}{7}{17/17}{Ein neues Model}{0}}}
\@writefile{nav}{\headcommand {\beamer@framepages {17}{17}}}
\newlabel{works_8<1>}{{8}{18}{Ein neues Model}{Doc-Start}{}}
\@writefile{snm}{\beamer@slide {works_8<1>}{18}}
\newlabel{works_8}{{8}{18}{Ein neues Model}{Doc-Start}{}}
\@writefile{snm}{\beamer@slide {works_8}{18}}
\newlabel{fig:imgs07.pdf}{{8}{18}{Ein neues Model}{Doc-Start}{}}
\@writefile{snm}{\beamer@slide {fig:imgs07.pdf}{18}}
\@writefile{nav}{\headcommand {\slideentry {1}{3}{8}{18/18}{Ein neues Model}{0}}}
\@writefile{nav}{\headcommand {\beamer@framepages {18}{18}}}
\newlabel{works_9<1>}{{8}{19}{Ein neues Model}{Doc-Start}{}}
\@writefile{snm}{\beamer@slide {works_9<1>}{19}}
\newlabel{works_9}{{8}{19}{Ein neues Model}{Doc-Start}{}}
\@writefile{snm}{\beamer@slide {works_9}{19}}
\newlabel{fig:imgs08.pdf}{{8}{19}{Ein neues Model}{Doc-Start}{}}
\@writefile{snm}{\beamer@slide {fig:imgs08.pdf}{19}}
\@writefile{nav}{\headcommand {\slideentry {1}{3}{9}{19/19}{Ein neues Model}{0}}}
\@writefile{nav}{\headcommand {\beamer@framepages {19}{19}}}
\newlabel{works_10<1>}{{8}{20}{Ein neues Model}{Doc-Start}{}}
\@writefile{snm}{\beamer@slide {works_10<1>}{20}}
\newlabel{works_10}{{8}{20}{Ein neues Model}{Doc-Start}{}}
\@writefile{snm}{\beamer@slide {works_10}{20}}
\newlabel{fig:imgs06.pdf}{{8}{20}{Ein neues Model}{Doc-Start}{}}
\@writefile{snm}{\beamer@slide {fig:imgs06.pdf}{20}}
\@writefile{nav}{\headcommand {\slideentry {1}{3}{10}{20/20}{Ein neues Model}{0}}}
\@writefile{nav}{\headcommand {\beamer@framepages {20}{20}}}
\newlabel{works_11<1>}{{8}{21}{Ein neues Model}{Doc-Start}{}}
\@writefile{snm}{\beamer@slide {works_11<1>}{21}}
\newlabel{works_11}{{8}{21}{Ein neues Model}{Doc-Start}{}}
\@writefile{snm}{\beamer@slide {works_11}{21}}
\newlabel{fig:imgs01.pdf}{{8}{21}{Ein neues Model}{Doc-Start}{}}
\@writefile{snm}{\beamer@slide {fig:imgs01.pdf}{21}}
\@writefile{nav}{\headcommand {\slideentry {1}{3}{11}{21/21}{Ein neues Model}{0}}}
\@writefile{nav}{\headcommand {\beamer@framepages {21}{21}}}
\@writefile{toc}{\beamer@sectionintoc {2}{Analyse}{22}{0}{2}}
\@writefile{nav}{\headcommand {\beamer@sectionpages {3}{21}}}
\@writefile{nav}{\headcommand {\beamer@subsectionpages {11}{21}}}
\@writefile{nav}{\headcommand {\sectionentry {2}{Analyse}{22}{Analyse}{0}}}
\newlabel{basics_1<1>}{{9}{22}{Analyse}{Doc-Start}{}}
\@writefile{snm}{\beamer@slide {basics_1<1>}{22}}
\newlabel{basics_1}{{9}{22}{Analyse}{Doc-Start}{}}
\@writefile{snm}{\beamer@slide {basics_1}{22}}
\@writefile{nav}{\headcommand {\slideentry {2}{0}{1}{22/22}{}{0}}}
\@writefile{nav}{\headcommand {\beamer@framepages {22}{22}}}
\newlabel{basics_2<1>}{{10}{23}{Analyse}{Doc-Start}{}}
\@writefile{snm}{\beamer@slide {basics_2<1>}{23}}
\newlabel{basics_2}{{10}{23}{Analyse}{Doc-Start}{}}
\@writefile{snm}{\beamer@slide {basics_2}{23}}
\newlabel{fig:imgshistory.pdf}{{10}{23}{Analyse}{Doc-Start}{}}
\@writefile{snm}{\beamer@slide {fig:imgshistory.pdf}{23}}
\@writefile{nav}{\headcommand {\slideentry {2}{0}{2}{23/23}{}{0}}}
\@writefile{nav}{\headcommand {\beamer@framepages {23}{23}}}
\@writefile{toc}{\beamer@subsectionintoc {2}{1}{Loss}{24}{0}{2}}
\@writefile{nav}{\headcommand {\beamer@subsectionpages {22}{23}}}
\@writefile{nav}{\headcommand {\beamer@subsectionentry {0}{2}{1}{24}{Loss}}}
\newlabel{loss_1<1>}{{11}{24}{Loss}{Doc-Start}{}}
\@writefile{snm}{\beamer@slide {loss_1<1>}{24}}
\newlabel{loss_1}{{11}{24}{Loss}{Doc-Start}{}}
\@writefile{snm}{\beamer@slide {loss_1}{24}}
\newlabel{fig:imgsreloss7475.pdf}{{11}{24}{Loss}{Doc-Start}{}}
\@writefile{snm}{\beamer@slide {fig:imgsreloss7475.pdf}{24}}
\@writefile{nav}{\headcommand {\slideentry {2}{1}{1}{24/24}{Loss}{0}}}
\@writefile{nav}{\headcommand {\beamer@framepages {24}{24}}}
\@writefile{toc}{\beamer@subsectionintoc {2}{2}{Auc}{25}{0}{2}}
\@writefile{nav}{\headcommand {\beamer@subsectionpages {24}{24}}}
\@writefile{nav}{\headcommand {\beamer@subsectionentry {0}{2}{2}{25}{Auc}}}
\newlabel{auc_1<1>}{{12}{25}{Auc}{Doc-Start}{}}
\@writefile{snm}{\beamer@slide {auc_1<1>}{25}}
\newlabel{auc_1}{{12}{25}{Auc}{Doc-Start}{}}
\@writefile{snm}{\beamer@slide {auc_1}{25}}
\newlabel{fig:imgsrecc0.pdf}{{12}{25}{Auc}{Doc-Start}{}}
\@writefile{snm}{\beamer@slide {fig:imgsrecc0.pdf}{25}}
\@writefile{nav}{\headcommand {\slideentry {2}{2}{1}{25/25}{Auc}{0}}}
\@writefile{nav}{\headcommand {\beamer@framepages {25}{25}}}
\newlabel{auc_2<1>}{{12}{26}{Auc}{Doc-Start}{}}
\@writefile{snm}{\beamer@slide {auc_2<1>}{26}}
\newlabel{auc_2}{{12}{26}{Auc}{Doc-Start}{}}
\@writefile{snm}{\beamer@slide {auc_2}{26}}
\newlabel{fig:imgsrecc1.pdf}{{12}{26}{Auc}{Doc-Start}{}}
\@writefile{snm}{\beamer@slide {fig:imgsrecc1.pdf}{26}}
\@writefile{nav}{\headcommand {\slideentry {2}{2}{2}{26/26}{Auc}{0}}}
\@writefile{nav}{\headcommand {\beamer@framepages {26}{26}}}
\newlabel{auc_3<1>}{{12}{27}{Auc}{Doc-Start}{}}
\@writefile{snm}{\beamer@slide {auc_3<1>}{27}}
\newlabel{auc_3}{{12}{27}{Auc}{Doc-Start}{}}
\@writefile{snm}{\beamer@slide {auc_3}{27}}
\newlabel{fig:imgsrecc2.pdf}{{12}{27}{Auc}{Doc-Start}{}}
\@writefile{snm}{\beamer@slide {fig:imgsrecc2.pdf}{27}}
\@writefile{nav}{\headcommand {\slideentry {2}{2}{3}{27/27}{Auc}{0}}}
\@writefile{nav}{\headcommand {\beamer@framepages {27}{27}}}
\newlabel{auc_4<1>}{{12}{28}{Auc}{Doc-Start}{}}
\@writefile{snm}{\beamer@slide {auc_4<1>}{28}}
\newlabel{auc_4}{{12}{28}{Auc}{Doc-Start}{}}
\@writefile{snm}{\beamer@slide {auc_4}{28}}
\newlabel{fig:imgsrecc3.pdf}{{12}{28}{Auc}{Doc-Start}{}}
\@writefile{snm}{\beamer@slide {fig:imgsrecc3.pdf}{28}}
\@writefile{nav}{\headcommand {\slideentry {2}{2}{4}{28/28}{Auc}{0}}}
\@writefile{nav}{\headcommand {\beamer@framepages {28}{28}}}
\@writefile{nav}{\headcommand {\beamer@partpages {1}{28}}}
\@writefile{nav}{\headcommand {\beamer@subsectionpages {25}{28}}}
\@writefile{nav}{\headcommand {\beamer@sectionpages {22}{28}}}
\@writefile{nav}{\headcommand {\beamer@documentpages {28}}}
\@writefile{nav}{\headcommand {\gdef \inserttotalframenumber {12}}}
